Counts analisys • PEPI
…
We load a time series of cell counts generated with rRACES

data("counts")
counts
#> # A tibble: 22 × 4
#>    genotype epistate counts  time
#>    <chr>    <chr>     <int> <dbl>
#>  1 A        -             1  0   
#>  2 A        +             0  0   
#>  3 A        -             2  1.83
#>  4 A        +             0  1.83
#>  5 A        -             3  2.14
#>  6 A        +             0  2.14
#>  7 A        -             8  3.07
#>  8 A        +             1  3.07
#>  9 A        -            32  4.00
#> 10 A        +             8  4.00
#> # ℹ 12 more rows

We create a PEPI object of counts type

x = init_counts(counts)
x
#> $counts
#> # A tibble: 22 × 4
#>    genotype epistate counts  time
#>    <chr>    <chr>     <int> <dbl>
#>  1 A        -             1  0   
#>  2 A        +             0  0   
#>  3 A        -             2  1.83
#>  4 A        +             0  1.83
#>  5 A        -             3  2.14
#>  6 A        +             0  2.14
#>  7 A        -             8  3.07
#>  8 A        +             1  3.07
#>  9 A        -            32  4.00
#> 10 A        +             8  4.00
#> # ℹ 12 more rows
…
x
#> $counts
#> # A tibble: 22 × 4
#>    genotype epistate counts  time
#>    <chr>    <chr>     <int> <dbl>
#>  1 A        -             1  0   
#>  2 A        +             0  0   
#>  3 A        -             2  1.83
#>  4 A        +             0  1.83
#>  5 A        -             3  2.14
#>  6 A        +             0  2.14
#>  7 A        -             8  3.07
#>  8 A        +             1  3.07
#>  9 A        -            32  4.00
#> 10 A        +             8  4.00
#> # ℹ 12 more rows
…
