VAF analisys • PEPI
…
We infer the sample tree and epimutation rates. We start by creating
a PEPI VAF object

x = init_vaf(data = spectrum)
print(x)
#> $VAF
#> # A tibble: 8,000 × 7
#>    node     Nx   DPx    Ny   DPy  VAFx  VAFy
#>    <chr> <int> <int> <int> <int> <dbl> <dbl>
#>  1 -        73   158   106   199 0.462 0.533
#>  2 -       110   205    87   182 0.537 0.478
#>  3 -       104   196    93   193 0.531 0.482
#>  4 -        95   197    94   191 0.482 0.492
#>  5 -       121   228   118   222 0.531 0.532
#>  6 -       102   200   112   219 0.51  0.511
#>  7 -       106   212   105   200 0.5   0.525
#>  8 -       109   210    85   202 0.519 0.421
#>  9 -       102   191   112   206 0.534 0.544
#> 10 -        85   204   102   196 0.417 0.520
#> # ℹ 7,990 more rows
…
